============================= test session starts ==============================
platform linux2 -- Python 3.2.5[pypy-2.4.0-final], pytest-2.9.2, py-1.4.31, pluggy-0.3.1
rootdir: /code, inifile: 
collected 0 items / 1 errors

==================================== ERRORS ====================================
________________________ ERROR collecting test_empty.py ________________________
test_empty.py:2: in <module>
    importlib.import_module("sqlite3")
/opt/pypy3/lib-python/3/importlib/__init__.py:124: in import_module
    return _bootstrap._gcd_import(name[level:], package, level)
/opt/pypy3/lib-python/3/importlib/_bootstrap.py:821: in _gcd_import
    loader.load_module(name)
/opt/pypy3/lib-python/3/importlib/_bootstrap.py:436: in load_module
    return self._load_module(fullname)
/opt/pypy3/lib-python/3/importlib/_bootstrap.py:141: in decorated
    return fxn(self, module, *args, **kwargs)
/opt/pypy3/lib-python/3/importlib/_bootstrap.py:342: in _load_module
    exec(code_object, module.__dict__)
/build/pypy3/pkg/pypy3/opt/pypy3/lib-python/3/sqlite3/__init__.py:23: in <module>
    ???
/opt/pypy3/lib-python/3/sqlite3/dbapi2.py:26: in <module>
    from _sqlite3 import *
/opt/pypy3/lib-python/3/importlib/_bootstrap.py:436: in load_module
    return self._load_module(fullname)
/opt/pypy3/lib-python/3/importlib/_bootstrap.py:141: in decorated
    return fxn(self, module, *args, **kwargs)
/opt/pypy3/lib-python/3/importlib/_bootstrap.py:342: in _load_module
    exec(code_object, module.__dict__)
/build/pypy3/pkg/pypy3/opt/pypy3/lib_pypy/_sqlite3.py:282: in <module>
    ???
/opt/pypy3/lib_pypy/cffi/api.py:340: in verify
    lib = self.verifier.load_library()
/opt/pypy3/lib_pypy/cffi/verifier.py:73: in load_library
    self._write_source()
/opt/pypy3/lib_pypy/cffi/verifier.py:125: in _write_source
    file = open(self.sourcefilename, 'w')
E   IOError: [Errno 2] No such file or directory: '/build/pypy3/pkg/pypy3/opt/pypy3/lib_pypy/__pycache__/_cffi__ge62e22e3x1211b795.c'
=========================== 1 error in 0.78 seconds ============================
/opt/pypy3/site-packages/pkg_resources/__init__.py:80: UserWarning: Support for Python 3.0-3.2 has been dropped. Future versions will fail here.
  warnings.warn(msg)
